
 DL_MG 3.1.0-rc.17 (18/08/2021)
 << Compiled with MPI >>
 Fine grid   :           63          95         127
 Grid step   :    9.3750000000000000E-002   6.2500000000000000E-002   4.6875000000000000E-002
 Coarse grid :            1           2           3
 MG levels   :            6

 using            1 OpenMP threads

 Loop blocks info:
 Smallest thread chunk in y:           3
 Loop block size in y:                 2
 block dimensions at each level:
 levels           6           5           4           3           2           1
 x               63          31          15           7           3           1
 y               95          47          23          11           5           3
 z              127          63          31          15           7           3
 n blk            1           1           1           1           1           1


  ranks  right coordinate in x direction
     0    64    32    16     8     4     2

  ranks  right coordinate in y direction
     0    96    48    24    12     6     3

  ranks  right coordinate in z direction
     0   128    64    32    16     8     4

Solving full PBE with steric weight using Newton algorithm:

Ionic species:                           2
Ion charges (e units):           1.0 -1.0
Input concentrations (rB**-3 units):   0.535E-03  0.535E-03
Temperature (K):                       0.300E+03
Multiplicative factor lambda:         -0.126E+02

Conjugate gradient enabled

Finite difference approximation order:   8

convergence tols     rel     abs
-------------------------------------------------------
defco residual  0.10E-01 0.10E-01
defco potential 0.10E-04 0.10E-04
Newton          0.10E-04 0.10E-07
CG              0.10E-04 0.10E-07
V cycle         0.10E-04 0.10E-07
Level 1         0.10E+00 0.10E-11

Max number of iterations:
-------------------------------------------------------
defect correction:      30
Newton:                 30
CG:                    100
Vcycle:                  1
MG level 1:            100

V cycle smoother iterations :    2    1
multigrid max convergence rate:   10.0
Omega SOR                   :  0.115E+01

DEFCO Getting initial solution using 2nd order solver
MG1    1  0.220249322210513E-02  0.275729050871175E-02   1   0.18E-01
MGt    1  0.156227013043355E+03  0.174895818463884E+01   6   0.25E-02
MG:   iter    residual       solution
MG:     1  0.1562270E+03  0.1748958E+01
CGt    1  0.165295042316265E+03  0.185472139483637E+01   6   0.25E-02
CG:   iter    residual       solution
CG:     1  0.1652950E+03  0.1854721E+01
MG1    1  0.789134586038135E-04  0.988845331646154E-04   1   0.64E-03
MGt    1  0.420821556672704E+02  0.665876027669941E-01   6   0.17E-02
MG:   iter    residual       solution
MG:     1  0.4208216E+02  0.6658760E-01
CGt    2  0.396597285434655E+02  0.189287906924794E+01   6   0.25E-02
CG:     2  0.3965973E+02  0.1892879E+01
MG1    1  0.380650371870292E-05  0.475730153020247E-05   1   0.31E-04
MGt    1  0.443711175193800E+01  0.617496453663808E-02   6   0.40E-03
MG:   iter    residual       solution
MG:     1  0.4437112E+01  0.6174965E-02
CGt    3  0.496706042553687E+01  0.189492159780207E+01   6   0.25E-02
CG:     3  0.4967060E+01  0.1894922E+01
MG1    1  0.111982562286886E-05  0.140367161250605E-05   1   0.91E-05
MGt    1  0.749968661405302E+00  0.121527842712823E-02   6   0.50E-04
MG:   iter    residual       solution
MG:     1  0.7499687E+00  0.1215278E-02
CGt    4  0.986977184426325E+00  0.189473859255253E+01   6   0.25E-02
CG:     4  0.9869772E+00  0.1894739E+01
MG1    1  0.192274494069186E-06  0.240669352792175E-06   1   0.16E-05
MGt    1  0.129242247226195E+00  0.166495690918636E-03   6   0.99E-05
MG:   iter    residual       solution
MG:     1  0.1292422E+00  0.1664957E-03
CGt    5  0.138599577086007E+00  0.189460815846267E+01   6   0.25E-02
CG:     5  0.1385996E+00  0.1894608E+01
MG1    1  0.121828903315430E-07  0.152266421822772E-07   1   0.10E-06
MGt    1  0.322494429955761E-01  0.251161862879036E-04   6   0.14E-05
MG:   iter    residual       solution
MG:     1  0.3224944E-01  0.2511619E-04
CGt    6  0.221460230452934E-01  0.189460269474459E+01   6   0.25E-02
CG:     6  0.2214602E-01  0.1894603E+01
MG1    1  0.670042008663931E-08  0.839036470804977E-08   1   0.55E-07
MGt    1  0.495407539012254E-02  0.546218232406798E-05   6   0.22E-06
MG:   iter    residual       solution
MG:     1  0.4954075E-02  0.5462182E-05
CGt    7  0.422489386516558E-02  0.189460697929750E+01   6   0.25E-02
CG:     7  0.4224894E-02  0.1894607E+01
MG1    1  0.103505818932705E-09  0.132800738274913E-09   1   0.86E-09
MGt    1  0.945255535584804E-03  0.730637387721965E-06   6   0.42E-07
MG:   iter    residual       solution
MG:     1  0.9452555E-03  0.7306374E-06
CGt    8  0.104305638835361E-02  0.189460731689886E+01   6   0.25E-02
CG:     8  0.1043056E-02  0.1894607E+01
NWT    1  0.234324087838519E+05  0.189460731689886E+01   6   0.25E-02
NWT:  iter    residual       solution
NWT:    1  0.2343241E+05  0.1894607E+01
MG1    1  0.822639151045003E-04  0.241630639840732E-03   1   0.26E-02
MGt    1  0.832862088010611E+02  0.303342906056617E+00   6   0.15E-02
MG:   iter    residual       solution
MG:     1  0.8328621E+02  0.3033429E+00
CGt    1  0.648230494949035E+02  0.240249286323455E+00   6   0.15E-02
CG:   iter    residual       solution
CG:     1  0.6482305E+02  0.2402493E+00
MG1    1  0.122680013023049E-05  0.360524692517315E-05   1   0.39E-04
MGt    1  0.114754248524308E+02  0.180786862032094E-01   6   0.65E-03
MG:   iter    residual       solution
MG:     1  0.1147542E+02  0.1807869E-01
CGt    2  0.111659758253944E+02  0.237521475130293E+00   6   0.15E-02
CG:     2  0.1116598E+02  0.2375215E+00
MG1    1  0.126505031533795E-06  0.368152014898922E-06   1   0.39E-05
MGt    1  0.117788870787801E+01  0.986337735081445E-03   6   0.11E-03
MG:   iter    residual       solution
MG:     1  0.1177889E+01  0.9863377E-03
CGt    3  0.136101133091436E+01  0.237076395397522E+00   6   0.15E-02
CG:     3  0.1361011E+01  0.2370764E+00
MG1    1  0.627330792689375E-07  0.185031469837350E-06   1   0.20E-05
MGt    1  0.184211228817881E+00  0.290334592006916E-03   6   0.14E-04
MG:   iter    residual       solution
MG:     1  0.1842112E+00  0.2903346E-03
CGt    4  0.288719314475293E+00  0.237301296481186E+00   6   0.15E-02
CG:     4  0.2887193E+00  0.2373013E+00
MG1    1  0.124692977648897E-07  0.365464887608491E-07   1   0.39E-06
MGt    1  0.407322927451728E-01  0.573814344563331E-04   6   0.29E-05
MG:   iter    residual       solution
MG:     1  0.4073229E-01  0.5738143E-04
CGt    5  0.579427183405591E-01  0.237263252205006E+00   6   0.15E-02
CG:     5  0.5794272E-01  0.2372633E+00
MG1    1  0.977957819420772E-09  0.285588106181347E-08   1   0.30E-07
MGt    1  0.826023154254453E-02  0.521780615365729E-05   6   0.58E-06
MG:   iter    residual       solution
MG:     1  0.8260232E-02  0.5217806E-05
CGt    6  0.835665843823078E-02  0.237264859929509E+00   6   0.15E-02
CG:     6  0.8356658E-02  0.2372649E+00
MG1    1  0.262652953226497E-09  0.771653056497662E-09   1   0.83E-08
MGt    1  0.123882689657746E-02  0.125349694086834E-05   6   0.84E-07
MG:   iter    residual       solution
MG:     1  0.1238827E-02  0.1253497E-05
CGt    7  0.153670982645792E-02  0.237265929314604E+00   6   0.15E-02
CG:     7  0.1536710E-02  0.2372659E+00
MG1    1  0.103962395861976E-09  0.305259906406870E-09   1   0.33E-08
MGt    1  0.267663963742664E-03  0.391409461450296E-06   6   0.15E-07
MG:   iter    residual       solution
MG:     1  0.2676640E-03  0.3914095E-06
CGt    8  0.331398302967201E-03  0.237265630416102E+00   6   0.15E-02
CG:     8  0.3313983E-03  0.2372656E+00
NWT    2  0.116149633880674E+04  0.167271430839487E+01   6   0.25E-02
NWT:    2  0.1161496E+04  0.1672714E+01
MG1    1  0.455995273376803E-04  0.978292398887118E-04   1   0.91E-03
MGt    1  0.138065732057734E+02  0.909348977740155E-01   6   0.34E-03
MG:   iter    residual       solution
MG:     1  0.1380657E+02  0.9093490E-01
CGt    1  0.119563807311893E+02  0.779471419071609E-01   6   0.34E-03
CG:   iter    residual       solution
CG:     1  0.1195638E+02  0.7794714E-01
MG1    1  0.676822293195610E-06  0.144984058126046E-05   1   0.13E-04
MGt    1  0.270194359638331E+01  0.382915170738192E-02   6   0.12E-03
MG:   iter    residual       solution
MG:     1  0.2701944E+01  0.3829152E-02
CGt    2  0.268332097877542E+01  0.770458105926276E-01   6   0.34E-03
CG:     2  0.2683321E+01  0.7704581E-01
MG1    1  0.284207866931644E-07  0.603377876390988E-07   1   0.57E-06
MGt    1  0.296233547079198E+00  0.165452966865853E-03   6   0.27E-04
MG:   iter    residual       solution
MG:     1  0.2962335E+00  0.1654530E-03
CGt    3  0.310053242648039E+00  0.769858150461906E-01   6   0.34E-03
CG:     3  0.3100532E+00  0.7698582E-01
MG1    1  0.110454286841046E-07  0.235280414126696E-07   1   0.22E-06
MGt    1  0.451394648343285E-01  0.406263846886492E-04   6   0.31E-05
MG:   iter    residual       solution
MG:     1  0.4513946E-01  0.4062638E-04
CGt    4  0.578998140072623E-01  0.770106579485447E-01   6   0.34E-03
CG:     4  0.5789981E-01  0.7701066E-01
MG1    1  0.378163847724912E-08  0.811199427624091E-08   1   0.75E-07
MGt    1  0.793551234481541E-02  0.846787581637963E-05   6   0.58E-06
MG:   iter    residual       solution
MG:     1  0.7935512E-02  0.8467876E-05
CGt    5  0.853892900047258E-02  0.770033514605835E-01   6   0.34E-03
CG:     5  0.8538929E-02  0.7700335E-01
MG1    1  0.608601078596055E-09  0.131381862295002E-08   1   0.12E-07
MGt    1  0.161310693613622E-02  0.144544725030540E-05   6   0.85E-07
MG:   iter    residual       solution
MG:     1  0.1613107E-02  0.1445447E-05
CGt    6  0.157314507632291E-02  0.770043056238069E-01   6   0.34E-03
CG:     6  0.1573145E-02  0.7700431E-01
MG1    1  0.882035487197421E-11  0.192286731408849E-10   1   0.18E-09
MGt    1  0.225204985736926E-03  0.992369007113402E-07   6   0.16E-07
MG:   iter    residual       solution
MG:     1  0.2252050E-03  0.9923690E-07
CGt    7  0.203423374381533E-03  0.770043524410568E-01   6   0.34E-03
CG:     7  0.2034234E-03  0.7700435E-01
NWT    3  0.485601689410535E+01  0.160063534591582E+01   6   0.25E-02
NWT:    3  0.4856017E+01  0.1600635E+01
MG1    1  0.415566054697418E-05  0.760133906000620E-05   1   0.68E-04
MGt    1  0.828828717666818E+00  0.651826803092064E-02   6   0.22E-04
MG:   iter    residual       solution
MG:     1  0.8288287E+00  0.6518268E-02
CGt    1  0.741419456816380E+00  0.575476531949590E-02   6   0.22E-04
CG:   iter    residual       solution
CG:     1  0.7414195E+00  0.5754765E-02
MG1    1  0.480801408936972E-07  0.876597806737869E-07   1   0.78E-06
MGt    1  0.178366641392715E+00  0.247043214903910E-03   6   0.74E-05
MG:   iter    residual       solution
MG:     1  0.1783666E+00  0.2470432E-03
CGt    2  0.177827160178563E+00  0.570294916819712E-02   6   0.22E-04
CG:     2  0.1778272E+00  0.5702949E-02
MG1    1  0.203338579656214E-08  0.367737284491485E-08   1   0.33E-07
MGt    1  0.205903070136657E-01  0.108679178856624E-04   6   0.18E-05
MG:   iter    residual       solution
MG:     1  0.2059031E-01  0.1086792E-04
CGt    3  0.209114135671764E-01  0.569950038584692E-02   6   0.22E-04
CG:     3  0.2091141E-01  0.5699500E-02
MG1    1  0.679023607347631E-09  0.123285370643034E-08   1   0.11E-07
MGt    1  0.322980235839368E-02  0.265591585008866E-05   6   0.21E-06
MG:   iter    residual       solution
MG:     1  0.3229802E-02  0.2655916E-05
CGt    4  0.404930311366548E-02  0.570083061583554E-02   6   0.22E-04
CG:     4  0.4049303E-02  0.5700831E-02
MG1    1  0.303431610691376E-09  0.554934473591508E-09   1   0.49E-08
MGt    1  0.535552035731521E-03  0.541877958729348E-06   6   0.40E-07
MG:   iter    residual       solution
MG:     1  0.5355520E-03  0.5418780E-06
CGt    5  0.580278129535937E-03  0.570036112518572E-02   6   0.22E-04
CG:     5  0.5802781E-03  0.5700361E-02
MG1    1  0.475275140317042E-10  0.873984605134769E-10   1   0.77E-09
MGt    1  0.104210212050703E-03  0.941609557038288E-07   6   0.10E-07
MG:   iter    residual       solution
MG:     1  0.1042102E-03  0.9416096E-07
CGt    6  0.105619850970433E-03  0.570041994876457E-02   6   0.22E-04
CG:     6  0.1056199E-03  0.5700420E-02
MG1    1  0.200717556450434E-11  0.369064595687179E-11   1   0.33E-10
MGt    1  0.162478176584901E-04  0.700963692831185E-08   6   0.10E-07
MG:   iter    residual       solution
MG:     1  0.1624782E-04  0.7009637E-08
CGt    7  0.140830107305978E-04  0.570042492546510E-02   6   0.22E-04
CG:     7  0.1408301E-04  0.5700425E-02
NWT    4  0.102716000807340E-03  0.159531994197333E+01   6   0.25E-02
NWT:    4  0.1027160E-03  0.1595320E+01

CG iteration report
 dl_mg_info: convergence reached after            7 steps.
 residual norm    1.4083010730597848E-005
 solution norm    5.7004249254651003E-003
 solution tol     2.2036371965694676E-005

Newton iteration report
 dl_mg_info: convergence reached after            4 steps.
 residual norm    1.0271600080734015E-004
 solution norm    1.5953199419733342
 solution tol     2.5033002478279985E-003
DEFCO Starting defect correction with a discretization order of: 8
DEFCO iter |ST+PT defect|   |BT defect|  |tot defect|   | pot |        |error|       |err.eqn res.|
MG1    1  0.278575784187183E-04  0.503195389866392E-04   1   0.45E-03
MGt    1  0.484642336179117E+02  0.181432202701342E+00   6   0.99E-03
MG:   iter    residual       solution
MG:     1  0.4846423E+02  0.1814322E+00
CGt    1  0.489039471237527E+02  0.183397698647822E+00   6   0.99E-03
CG:   iter    residual       solution
CG:     1  0.4890395E+02  0.1833977E+00
MG1    1  0.648130839049590E-05  0.117187286248070E-04   1   0.10E-03
MGt    1  0.800665277893398E+01  0.118110712733496E-01   6   0.49E-03
MG:   iter    residual       solution
MG:     1  0.8006653E+01  0.1181107E-01
CGt    2  0.805117816196558E+01  0.180195429952664E+00   6   0.99E-03
CG:     2  0.8051178E+01  0.1801954E+00
MG1    1  0.795933187264438E-06  0.144433274478580E-05   1   0.13E-04
MGt    1  0.131730932687748E+01  0.156732821950618E-02   6   0.81E-04
MG:   iter    residual       solution
MG:     1  0.1317309E+01  0.1567328E-02
CGt    3  0.133295009506950E+01  0.179979149699021E+00   6   0.99E-03
CG:     3  0.1332950E+01  0.1799791E+00
MG1    1  0.220489926091795E-07  0.404499355635534E-07   1   0.35E-06
MGt    1  0.232620725904480E+00  0.141542872400331E-03   6   0.13E-04
MG:   iter    residual       solution
MG:     1  0.2326207E+00  0.1415429E-03
CGt    4  0.194942056241658E+00  0.179985634175245E+00   6   0.99E-03
CG:     4  0.1949421E+00  0.1799856E+00
MG1    1  0.427166432793031E-08  0.780565337278273E-08   1   0.68E-07
MGt    1  0.312017745616765E-01  0.211305336440676E-04   6   0.19E-05
MG:   iter    residual       solution
MG:     1  0.3120177E-01  0.2113053E-04
CGt    5  0.257824128562687E-01  0.179989030438466E+00   6   0.99E-03
CG:     5  0.2578241E-01  0.1799890E+00
MG1    1  0.126659418184793E-08  0.230376791535531E-08   1   0.20E-07
MGt    1  0.503885471239395E-02  0.383184433283185E-05   6   0.26E-06
MG:   iter    residual       solution
MG:     1  0.5038855E-02  0.3831844E-05
CGt    6  0.475054433787463E-02  0.179988749049258E+00   6   0.99E-03
CG:     6  0.4750544E-02  0.1799887E+00
MG1    1  0.220401081138236E-09  0.397937114123245E-09   1   0.35E-08
MGt    1  0.647352386407416E-03  0.535930353530961E-06   6   0.48E-07
MG:   iter    residual       solution
MG:     1  0.6473524E-03  0.5359304E-06
CGt    7  0.810581996730983E-03  0.179988528256423E+00   6   0.99E-03
CG:     7  0.8105820E-03  0.1799885E+00

CG iteration report
 dl_mg_info: convergence reached after            7 steps.
 residual norm    8.1058199673098312E-004
 solution norm   0.17998852825642275
 solution tol     9.8716951790232235E-004
DEFCO    1  0.1970913E+01 0.1042075E+01 0.1636018E+01 0.2643894E-01 -> 0.2982917E-02 0.1343363E-04
MG1    1  0.957712282386198E-05  0.172915582433163E-04   1   0.15E-03
MGt    1  0.217154522198518E+02  0.813975557405077E-01   6   0.40E-03
MG:   iter    residual       solution
MG:     1  0.2171545E+02  0.8139756E-01
CGt    1  0.218655321337175E+02  0.820225944484574E-01   6   0.40E-03
CG:   iter    residual       solution
CG:     1  0.2186553E+02  0.8202259E-01
MG1    1  0.223985142192050E-05  0.404747762170847E-05   1   0.36E-04
MGt    1  0.314957558022102E+01  0.431401579785928E-02   6   0.22E-03
MG:   iter    residual       solution
MG:     1  0.3149576E+01  0.4314016E-02
CGt    2  0.316844816681122E+01  0.812619938659885E-01   6   0.40E-03
CG:     2  0.3168448E+01  0.8126199E-01
MG1    1  0.276063475926984E-06  0.500668645817459E-06   1   0.44E-05
MGt    1  0.533358555509169E+00  0.607261796160556E-03   6   0.32E-04
MG:   iter    residual       solution
MG:     1  0.5333586E+00  0.6072618E-03
CGt    3  0.545368307805815E+00  0.811075484180932E-01   6   0.40E-03
CG:     3  0.5453683E+00  0.8110755E-01
MG1    1  0.175691626875070E-07  0.319823506689998E-07   1   0.28E-06
MGt    1  0.966582271983473E-01  0.598647310359588E-04   6   0.55E-05
MG:   iter    residual       solution
MG:     1  0.9665823E-01  0.5986473E-04
CGt    4  0.723641770124099E-01  0.811048887626922E-01   6   0.40E-03
CG:     4  0.7236418E-01  0.8110489E-01
MG1    1  0.102434444863000E-08  0.182568964223929E-08   1   0.16E-07
MGt    1  0.119753370106834E-01  0.976648128965111E-05   6   0.72E-06
MG:   iter    residual       solution
MG:     1  0.1197534E-01  0.9766481E-05
CGt    5  0.988988354152432E-02  0.811093703372927E-01   6   0.40E-03
CG:     5  0.9889884E-02  0.8110937E-01
MG1    1  0.955596310253174E-10  0.176377431757054E-09   1   0.15E-08
MGt    1  0.172342196394930E-02  0.128914612747209E-05   6   0.99E-07
MG:   iter    residual       solution
MG:     1  0.1723422E-02  0.1289146E-05
CGt    6  0.170502863467378E-02  0.811088819642410E-01   6   0.40E-03
CG:     6  0.1705029E-02  0.8110888E-01
MG1    1  0.501732834466827E-10  0.904397652510176E-10   1   0.80E-09
MGt    1  0.256184634355364E-03  0.173000489052907E-06   6   0.17E-07
MG:   iter    residual       solution
MG:     1  0.2561846E-03  0.1730005E-06
CGt    7  0.307044291440948E-03  0.811088079141592E-01   6   0.40E-03
CG:     7  0.3070443E-03  0.8110881E-01

CG iteration report
 dl_mg_info: convergence reached after            7 steps.
 residual norm    3.0704429144094817E-004
 solution norm    8.1108807914159198E-002
 solution tol     3.9941808180380181E-004
DEFCO    2  0.1168282E+01 0.1042925E+01 0.6619482E+00 0.2843955E-01 -> 0.1344201E-02 0.5088588E-05
MG1    1  0.377127840999878E-05  0.680957962661102E-05   1   0.60E-04
MGt    1  0.113280529324693E+02  0.407862986512277E-01   6   0.20E-03
MG:   iter    residual       solution
MG:     1  0.1132805E+02  0.4078630E-01
CGt    1  0.113924982081963E+02  0.410360116262297E-01   6   0.20E-03
CG:   iter    residual       solution
CG:     1  0.1139250E+02  0.4103601E-01
MG1    1  0.887508302437528E-06  0.160361506569994E-05   1   0.14E-04
MGt    1  0.144233551187807E+01  0.186223272629847E-02   6   0.11E-03
MG:   iter    residual       solution
MG:     1  0.1442336E+01  0.1862233E-02
CGt    2  0.145230737802945E+01  0.408651223926933E-01   6   0.20E-03
CG:     2  0.1452307E+01  0.4086512E-01
MG1    1  0.108670495739930E-06  0.197122223281364E-06   1   0.17E-05
MGt    1  0.234049987323646E+00  0.278134168848597E-03   6   0.15E-04
MG:   iter    residual       solution
MG:     1  0.2340500E+00  0.2781342E-03
CGt    3  0.250215286623702E+00  0.407582408479280E-01   6   0.20E-03
CG:     3  0.2502153E+00  0.4075824E-01
MG1    1  0.928174471824721E-08  0.168778656712180E-07   1   0.15E-06
MGt    1  0.435612588254448E-01  0.280444194539568E-04   6   0.25E-05
MG:   iter    residual       solution
MG:     1  0.4356126E-01  0.2804442E-04
CGt    4  0.309463299860272E-01  0.407561134132847E-01   6   0.20E-03
CG:     4  0.3094633E-01  0.4075611E-01
MG1    1  0.112274916777292E-08  0.201985360749547E-08   1   0.18E-07
MGt    1  0.533503517231222E-02  0.520541894992414E-05   6   0.31E-06
MG:   iter    residual       solution
MG:     1  0.5335035E-02  0.5205419E-05
CGt    5  0.452461091970289E-02  0.407590043150166E-01   6   0.20E-03
CG:     5  0.4524611E-02  0.4075900E-01
MG1    1  0.584614482330820E-10  0.104335089981592E-09   1   0.94E-09
MGt    1  0.653288375739348E-03  0.586573512251999E-06   6   0.45E-07
MG:   iter    residual       solution
MG:     1  0.6532884E-03  0.5865735E-06
CGt    6  0.686371766508097E-03  0.407587388301736E-01   6   0.20E-03
CG:     6  0.6863718E-03  0.4075874E-01
MG1    1  0.107792373790181E-10  0.193478480600880E-10   1   0.17E-09
MGt    1  0.106434276525870E-03  0.738777780644484E-07   6   0.10E-07
MG:   iter    residual       solution
MG:     1  0.1064343E-03  0.7387778E-07
CGt    7  0.130819726520974E-03  0.407587039663978E-01   6   0.20E-03
CG:     7  0.1308197E-03  0.4075870E-01

CG iteration report
 dl_mg_info: convergence reached after            7 steps.
 residual norm    1.3081972652097398E-004
 solution norm    4.0758703966397830E-002
 solution tol     2.0177610134298227E-004
DEFCO    3  0.1116177E+01 0.1042730E+01 0.3343998E+00 0.2931053E-01 -> 0.6754865E-03 0.2168051E-05
MG1    1  0.167364961975294E-05  0.302213372640210E-05   1   0.27E-04
MGt    1  0.618634231749754E+01  0.217510272707322E-01   6   0.11E-03
MG:   iter    residual       solution
MG:     1  0.6186342E+01  0.2175103E-01
CGt    1  0.621889429449115E+01  0.218725333865523E-01   6   0.11E-03
CG:   iter    residual       solution
CG:     1  0.6218894E+01  0.2187253E-01
MG1    1  0.394294721598368E-06  0.712456169449516E-06   1   0.63E-05
MGt    1  0.737968798647070E+00  0.893528258413723E-03   6   0.62E-04
MG:   iter    residual       solution
MG:     1  0.7379688E+00  0.8935283E-03
CGt    2  0.742712097820402E+00  0.218397542101627E-01   6   0.11E-03
CG:     2  0.7427121E+00  0.2183975E-01
MG1    1  0.486899030635545E-07  0.883140090887429E-07   1   0.78E-06
MGt    1  0.118595524487837E+00  0.141743011664310E-03   6   0.74E-05
MG:   iter    residual       solution
MG:     1  0.1185955E+00  0.1417430E-03
CGt    3  0.128290882361023E+00  0.217719968733993E-01   6   0.11E-03
CG:     3  0.1282909E+00  0.2177200E-01
MG1    1  0.502574856743135E-08  0.913383128930937E-08   1   0.80E-07
MGt    1  0.219524575111238E-01  0.146282574520000E-04   6   0.13E-05
MG:   iter    residual       solution
MG:     1  0.2195246E-01  0.1462826E-04
CGt    4  0.151054309790988E-01  0.217710466107097E-01   6   0.11E-03
CG:     4  0.1510543E-01  0.2177105E-01
MG1    1  0.747584038138551E-09  0.134758870729507E-08   1   0.12E-07
MGt    1  0.258838334688831E-02  0.288592816693658E-05   6   0.15E-06
MG:   iter    residual       solution
MG:     1  0.2588383E-02  0.2885928E-05
CGt    5  0.226730140455064E-02  0.217727224881128E-01   6   0.11E-03
CG:     5  0.2267301E-02  0.2177272E-01
MG1    1  0.600984713439838E-10  0.108037960318319E-09   1   0.96E-09
MGt    1  0.280091099853032E-03  0.305823449913757E-06   6   0.23E-07
MG:   iter    residual       solution
MG:     1  0.2800911E-03  0.3058234E-06
CGt    6  0.320051174629365E-03  0.217725789996865E-01   6   0.11E-03
CG:     6  0.3200512E-03  0.2177258E-01
MG1    1  0.223084708913895E-11  0.396029338165106E-11   1   0.36E-10
MGt    1  0.511290686824639E-04  0.363286900360036E-07   6   0.10E-07
MG:   iter    residual       solution
MG:     1  0.5112907E-04  0.3632869E-07
CGt    7  0.630922971417759E-04  0.217725613922562E-01   6   0.11E-03
CG:     7  0.6309230E-04  0.2177256E-01

CG iteration report
 dl_mg_info: convergence reached after            7 steps.
 residual norm    6.3092297141775850E-005
 solution norm    2.1772561392256206E-002
 solution tol     1.1046133726593298E-004
DEFCO    4  0.1048293E+01 0.1042827E+01 0.1830655E+00 0.2972671E-01 -> 0.3608326E-03 0.1045617E-05
MG1    1  0.775997036023802E-06  0.140126130361233E-05   1   0.12E-04
MGt    1  0.349222406315158E+01  0.120193858406470E-01   6   0.63E-04
MG:   iter    residual       solution
MG:     1  0.3492224E+01  0.1201939E-01
CGt    1  0.351077026831621E+01  0.120873954826330E-01   6   0.63E-04
CG:   iter    residual       solution
CG:     1  0.3510770E+01  0.1208740E-01
MG1    1  0.185457397882204E-06  0.335061194149368E-06   1   0.30E-05
MGt    1  0.406530289820718E+00  0.465463335492153E-03   6   0.35E-04
MG:   iter    residual       solution
MG:     1  0.4065303E+00  0.4654633E-03
CGt    2  0.408042502692690E+00  0.120894007399397E-01   6   0.63E-04
CG:     2  0.4080425E+00  0.1208940E-01
MG1    1  0.231524546776861E-07  0.419979505277062E-07   1   0.37E-06
MGt    1  0.647310210543114E-01  0.772413219226443E-04   6   0.41E-05
MG:   iter    residual       solution
MG:     1  0.6473102E-01  0.7724132E-04
CGt    3  0.705390214465994E-01  0.120461970403620E-01   6   0.63E-04
CG:     3  0.7053902E-01  0.1204620E-01
MG1    1  0.267567317200857E-08  0.486388915153201E-08   1   0.43E-07
MGt    1  0.118604022060688E-01  0.823491307796370E-05   6   0.71E-06
MG:   iter    residual       solution
MG:     1  0.1186040E-01  0.8234913E-05
CGt    4  0.811801705072993E-02  0.120459998816245E-01   6   0.63E-04
CG:     4  0.8118017E-02  0.1204600E-01
MG1    1  0.443867170237217E-09  0.800716119579422E-09   1   0.71E-08
MGt    1  0.136239075633227E-02  0.164943806738257E-05   6   0.81E-07
MG:   iter    residual       solution
MG:     1  0.1362391E-02  0.1649438E-05
CGt    5  0.127775693997468E-02  0.120469803053108E-01   6   0.63E-04
CG:     5  0.1277757E-02  0.1204698E-01
MG1    1  0.422382367153243E-10  0.760194246884337E-10   1   0.68E-09
MGt    1  0.155994815807636E-03  0.177288970073018E-06   6   0.13E-07
MG:   iter    residual       solution
MG:     1  0.1559948E-03  0.1772890E-06
CGt    6  0.184640681201174E-03  0.120468994664291E-01   6   0.63E-04
CG:     6  0.1846407E-03  0.1204690E-01
MG1    1  0.476779584545847E-12  0.821017576447643E-12   1   0.78E-11
MGt    1  0.301387092180413E-04  0.209845264147595E-07   6   0.10E-07
MG:   iter    residual       solution
MG:     1  0.3013871E-04  0.2098453E-07
CGt    7  0.365486115124233E-04  0.120468890511504E-01   6   0.63E-04
CG:     7  0.3654861E-04  0.1204689E-01

CG iteration report
 dl_mg_info: convergence reached after            7 steps.
 residual norm    3.6548611512423289E-005
 solution norm    1.2046889051150401E-002
 solution tol     6.3033699732108211E-005
DEFCO    5  0.1052598E+01 0.1042795E+01 0.1044646E+00 0.2993905E-01 -> 0.1996509E-03 0.6057134E-06
MG1    1  0.383551044244412E-06  0.692656132344673E-06   1   0.61E-05
MGt    1  0.200474218132609E+01  0.680907992560876E-02   6   0.37E-04
MG:   iter    residual       solution
MG:     1  0.2004742E+01  0.6809080E-02
CGt    1  0.201617073568567E+01  0.685074745977320E-02   6   0.37E-04
CG:   iter    residual       solution
CG:     1  0.2016171E+01  0.6850747E-02
MG1    1  0.921228735471073E-07  0.166458145304261E-06   1   0.15E-05
MGt    1  0.234875958458170E+00  0.251263919712267E-03   6   0.20E-04
MG:   iter    residual       solution
MG:     1  0.2348760E+00  0.2512639E-03
CGt    2  0.233918511890558E+00  0.685736692175553E-02   6   0.37E-04
CG:     2  0.2339185E+00  0.6857367E-02
MG1    1  0.116684244033756E-07  0.211645328495244E-07   1   0.19E-06
MGt    1  0.375495139716413E-01  0.435804675965056E-04   6   0.23E-05
MG:   iter    residual       solution
MG:     1  0.3754951E-01  0.4358047E-04
CGt    3  0.403582459786169E-01  0.683047088754752E-02   6   0.37E-04
CG:     3  0.4035825E-01  0.6830471E-02
MG1    1  0.147440665390610E-08  0.268006525804748E-08   1   0.24E-07
MGt    1  0.673006521326828E-02  0.473270646106963E-05   6   0.40E-06
MG:   iter    residual       solution
MG:     1  0.6730065E-02  0.4732706E-05
CGt    4  0.464616122604639E-02  0.683056745628894E-02   6   0.37E-04
CG:     4  0.4646161E-02  0.6830567E-02
MG1    1  0.262693316545353E-09  0.474196656568685E-09   1   0.42E-08
MGt    1  0.758385982909326E-03  0.956673642196009E-06   6   0.46E-07
MG:   iter    residual       solution
MG:     1  0.7583860E-03  0.9566736E-06
CGt    5  0.741155177644345E-03  0.683114314574164E-02   6   0.37E-04
CG:     5  0.7411552E-03  0.6831143E-02
MG1    1  0.281717235733038E-10  0.507381853025576E-10   1   0.45E-09
MGt    1  0.938700757387021E-04  0.104469809443142E-06   6   0.10E-07
MG:   iter    residual       solution
MG:     1  0.9387008E-04  0.1044698E-06
CGt    6  0.110283808771694E-03  0.683109504959552E-02   6   0.37E-04
CG:     6  0.1102838E-03  0.6831095E-02
MG1    1  0.222268640725451E-12  0.421741805785236E-12   1   0.35E-11
MGt    1  0.183403265866381E-04  0.122091679491767E-07   6   0.10E-07
MG:   iter    residual       solution
MG:     1  0.1834033E-04  0.1220917E-07
CGt    7  0.213958544984619E-04  0.683108911626040E-02   6   0.37E-04
CG:     7  0.2139585E-04  0.6831089E-02

CG iteration report
 dl_mg_info: convergence reached after            7 steps.
 residual norm    2.1395854498461922E-005
 solution norm    6.8310891162604035E-003
 solution tol     3.6893701262602465E-005
DEFCO    6  0.1042378E+01 0.1042812E+01 0.6114325E-01 0.3005123E-01 -> 0.1132104E-03 0.3545895E-06
MG1    1  0.193498929867034E-06  0.349437007575531E-06   1   0.31E-05
MGt    1  0.116962580730791E+01  0.392221715198441E-02   6   0.22E-04
MG:   iter    residual       solution
MG:     1  0.1169626E+01  0.3922217E-02
CGt    1  0.117672925354934E+01  0.394809251870027E-02   6   0.22E-04
CG:   iter    residual       solution
CG:     1  0.1176729E+01  0.3948093E-02
MG1    1  0.472996066086298E-07  0.854513648179842E-07   1   0.76E-06
MGt    1  0.138290581963882E+00  0.142143593449754E-03   6   0.12E-04
MG:   iter    residual       solution
MG:     1  0.1382906E+00  0.1421436E-03
CGt    2  0.136725909510461E+00  0.395411961331070E-02   6   0.22E-04
CG:     2  0.1367259E+00  0.3954120E-02
MG1    1  0.602686484147427E-08  0.109325879631620E-07   1   0.96E-07
MGt    1  0.220078754108193E-01  0.251915790788806E-04   6   0.14E-05
MG:   iter    residual       solution
MG:     1  0.2200788E-01  0.2519158E-04
CGt    3  0.234674811849100E-01  0.393738826330311E-02   6   0.22E-04
CG:     3  0.2346748E-01  0.3937388E-02
MG1    1  0.805823760784311E-09  0.146525366686067E-08   1   0.13E-07
MGt    1  0.386842810943967E-02  0.279486607058583E-05   6   0.23E-06
MG:   iter    residual       solution
MG:     1  0.3868428E-02  0.2794866E-05
CGt    4  0.270827488153891E-02  0.393756215194628E-02   6   0.22E-04
CG:     4  0.2708275E-02  0.3937562E-02
MG1    1  0.150740403164358E-09  0.272182565407243E-09   1   0.24E-08
MGt    1  0.436682001095465E-03  0.556762902018177E-06   6   0.27E-07
MG:   iter    residual       solution
MG:     1  0.4366820E-03  0.5567629E-06
CGt    5  0.446832639502386E-03  0.393790301265822E-02   6   0.22E-04
CG:     5  0.4468326E-03  0.3937903E-02
MG1    1  0.175492254433621E-10  0.316107450438004E-10   1   0.28E-09
MGt    1  0.585161154767931E-04  0.631699975457762E-07   6   0.10E-07
MG:   iter    residual       solution
MG:     1  0.5851612E-04  0.6317000E-07
CGt    6  0.678791527280201E-04  0.393787449072459E-02   6   0.22E-04
CG:     6  0.6787915E-04  0.3937874E-02
MG1    1  0.213616349613446E-12  0.397418288280939E-12   1   0.34E-11
MGt    1  0.111110466200932E-04  0.752410111492589E-08   6   0.10E-07
MG:   iter    residual       solution
MG:     1  0.1111105E-04  0.7524101E-08
CGt    7  0.130248394072550E-04  0.393787077512017E-02   6   0.22E-04
CG:     7  0.1302484E-04  0.3937871E-02

CG iteration report
 dl_mg_info: convergence reached after            7 steps.
 residual norm    1.3024839407254982E-005
 solution norm    3.9378707751201673E-003
 solution tol     2.1957744783000267E-005
DEFCO    7  0.1044517E+01 0.1042804E+01 0.3639016E-01 0.3011234E-01 -> 0.6526160E-04 0.2158583E-06
MG1    1  0.101586923714133E-06  0.183471374256810E-06   1   0.16E-05
MGt    1  0.688697093778335E+00  0.228854708214894E-02   6   0.13E-04
MG:   iter    residual       solution
MG:     1  0.6886971E+00  0.2288547E-02
CGt    1  0.693172808118447E+00  0.230488157422590E-02   6   0.13E-04
CG:   iter    residual       solution
CG:     1  0.6931728E+00  0.2304882E-02
MG1    1  0.249433203429492E-07  0.450713590261778E-07   1   0.40E-06
MGt    1  0.824024316012671E-01  0.809408832379479E-04   6   0.69E-05
MG:   iter    residual       solution
MG:     1  0.8240243E-01  0.8094088E-04
CGt    2  0.806017734298208E-01  0.230906635165379E-02   6   0.13E-04
CG:     2  0.8060177E-01  0.2309066E-02
MG1    1  0.317814656541908E-08  0.576488845163479E-08   1   0.51E-07
MGt    1  0.130400971309579E-01  0.147528030900379E-04   6   0.81E-06
MG:   iter    residual       solution
MG:     1  0.1304010E-01  0.1475280E-04
CGt    3  0.137516111989092E-01  0.229875304024812E-02   6   0.13E-04
CG:     3  0.1375161E-01  0.2298753E-02
MG1    1  0.442952412796113E-09  0.805444793411275E-09   1   0.71E-08
MGt    1  0.225097194718578E-02  0.162537703645105E-05   6   0.14E-06
MG:   iter    residual       solution
MG:     1  0.2250972E-02  0.1625377E-05
CGt    4  0.161055010609726E-02  0.229891128024932E-02   6   0.13E-04
CG:     4  0.1610550E-02  0.2298911E-02
MG1    1  0.873566760654330E-10  0.157787861574996E-09   1   0.14E-08
MGt    1  0.255949946273160E-03  0.325884437689497E-06   6   0.16E-07
MG:   iter    residual       solution
MG:     1  0.2559499E-03  0.3258844E-06
CGt    5  0.267389900901301E-03  0.229911332235673E-02   6   0.13E-04
CG:     5  0.2673899E-03  0.2299113E-02
MG1    1  0.109274117112853E-10  0.196898767146419E-10   1   0.18E-09
MGt    1  0.356396134156557E-04  0.376349915950753E-07   6   0.10E-07
MG:   iter    residual       solution
MG:     1  0.3563961E-04  0.3763499E-07
CGt    6  0.408923023895786E-04  0.229909620060538E-02   6   0.13E-04
CG:     6  0.4089230E-04  0.2299096E-02
MG1    1  0.222425833161436E-12  0.408173071200200E-12   1   0.36E-11
MGt    1  0.662462876098101E-05  0.452422509698176E-08   6   0.10E-07
MG:   iter    residual       solution
MG:     1  0.6624629E-05  0.4524225E-08
CGt    7  0.772512957683060E-05  0.229909397897599E-02   6   0.13E-04
CG:     7  0.7725130E-05  0.2299094E-02

CG iteration report
 dl_mg_info: convergence reached after            7 steps.
 residual norm    7.7251295768306036E-006
 solution norm    2.2990939789759935E-003
 solution tol     1.3221021916886403E-005
DEFCO    8  0.1042497E+01 0.1042808E+01 0.2191096E-01 0.3014623E-01 -> 0.3810246E-04 0.1280271E-06
MG1    1  0.539486890445224E-07  0.974309520767683E-07   1   0.86E-06
MGt    1  0.409506977872545E+00  0.134792768977359E-02   6   0.80E-05
MG:   iter    residual       solution
MG:     1  0.4095070E+00  0.1347928E-02
CGt    1  0.412286780697922E+00  0.135808372123860E-02   6   0.80E-05
CG:   iter    residual       solution
CG:     1  0.4122868E+00  0.1358084E-02
MG1    1  0.134711058508658E-07  0.243363073257239E-07   1   0.22E-06
MGt    1  0.492709175367071E-01  0.475079259604392E-04   6   0.41E-05
MG:   iter    residual       solution
MG:     1  0.4927092E-01  0.4750793E-04
CGt    2  0.478077162314922E-01  0.136090335235530E-02   6   0.80E-05
CG:     2  0.4780772E-01  0.1360903E-02
MG1    1  0.170572663577331E-08  0.309441244818432E-08   1   0.27E-07
MGt    1  0.772591843844666E-02  0.872806447491652E-05   6   0.48E-06
MG:   iter    residual       solution
MG:     1  0.7725918E-02  0.8728064E-05
CGt    3  0.811372679971336E-02  0.135455888807472E-02   6   0.80E-05
CG:     3  0.8113727E-02  0.1354559E-02
MG1    1  0.245906253155991E-09  0.447293146055039E-09   1   0.39E-08
MGt    1  0.131564541387446E-02  0.967352744882557E-06   6   0.81E-07
MG:   iter    residual       solution
MG:     1  0.1315645E-02  0.9673527E-06
CGt    4  0.958547142476649E-03  0.135467893997883E-02   6   0.80E-05
CG:     4  0.9585471E-03  0.1354679E-02
MG1    1  0.501544075814298E-10  0.906024198337760E-10   1   0.80E-09
MGt    1  0.152174911265280E-03  0.191306146089025E-06   6   0.10E-07
MG:   iter    residual       solution
MG:     1  0.1521749E-03  0.1913061E-06
CGt    5  0.162800311109980E-03  0.135479961715353E-02   6   0.80E-05
CG:     5  0.1628003E-03  0.1354800E-02
MG1    1  0.661418759910702E-11  0.119178852838995E-10   1   0.11E-09
MGt    1  0.218080739615188E-04  0.228529105434843E-07   6   0.10E-07
MG:   iter    residual       solution
MG:     1  0.2180807E-04  0.2285291E-07
CGt    6  0.249519764648883E-04  0.135478939617698E-02   6   0.80E-05
CG:     6  0.2495198E-04  0.1354789E-02
MG1    1  0.130263184603851E-12  0.238935645700976E-12   1   0.21E-11
MGt    1  0.394974425967709E-05  0.279853880451734E-08   6   0.10E-07
MG:   iter    residual       solution
MG:     1  0.3949744E-05  0.2798539E-08
CGt    7  0.472299862683319E-05  0.135478798272673E-02   6   0.80E-05
CG:     7  0.4722999E-05  0.1354788E-02

CG iteration report
 dl_mg_info: convergence reached after            7 steps.
 residual norm    4.7229986268331910E-006
 solution norm    1.3547879827267319E-003
 solution tol     8.0269907236902835E-006
DEFCO    9  0.1043166E+01 0.1042806E+01 0.1330298E-01 0.3016537E-01 -> 0.2245265E-04 0.7827338E-07
MG1    1  0.294231799940281E-07  0.531433811291905E-07   1   0.47E-06
MGt    1  0.244849879706614E+00  0.799997604280188E-03   6   0.49E-05
MG:   iter    residual       solution
MG:     1  0.2448499E+00  0.7999976E-03
CGt    1  0.246580982304121E+00  0.806331476278062E-03   6   0.49E-05
CG:   iter    residual       solution
CG:     1  0.2465810E+00  0.8063315E-03
MG1    1  0.736120729140298E-08  0.133017016435485E-07   1   0.12E-06
MGt    1  0.295569690106969E-01  0.277681125040150E-04   6   0.25E-05
MG:   iter    residual       solution
MG:     1  0.2955697E-01  0.2776811E-04
CGt    2  0.283853048260653E-01  0.808150375363761E-03   6   0.49E-05
CG:     2  0.2838530E-01  0.8081504E-03
MG1    1  0.919260521587429E-09  0.166768041593787E-08   1   0.15E-07
MGt    1  0.458914402701887E-02  0.520183025221232E-05   6   0.28E-06
MG:   iter    residual       solution
MG:     1  0.4589144E-02  0.5201830E-05
CGt    3  0.480023163834245E-02  0.804255524710494E-03   6   0.49E-05
CG:     3  0.4800232E-02  0.8042555E-03
MG1    1  0.135004594912177E-09  0.245580121405434E-09   1   0.22E-08
MGt    1  0.773552665851194E-03  0.564145226111121E-06   6   0.48E-07
MG:   iter    residual       solution
MG:     1  0.7735527E-03  0.5641452E-06
CGt    4  0.575654916134581E-03  0.804339235908740E-03   6   0.49E-05
CG:     4  0.5756549E-03  0.8043392E-03
MG1    1  0.289633848031891E-10  0.523318093114583E-10   1   0.46E-09
MGt    1  0.908096571485573E-04  0.112875878181147E-06   6   0.10E-07
MG:   iter    residual       solution
MG:     1  0.9080966E-04  0.1128759E-06
CGt    5  0.980695474531831E-04  0.804411349161919E-03   6   0.49E-05
CG:     5  0.9806955E-04  0.8044113E-03
MG1    1  0.401959557868590E-11  0.724459857880734E-11   1   0.64E-10
MGt    1  0.131159499480380E-04  0.136180553527986E-07   6   0.10E-07
MG:   iter    residual       solution
MG:     1  0.1311595E-04  0.1361806E-07
CGt    6  0.149942039399340E-04  0.804405231070905E-03   6   0.49E-05
CG:     6  0.1499420E-04  0.8044052E-03
MG1    1  0.966359650891971E-13  0.176594120045991E-12   1   0.15E-11
MGt    1  0.234308938685294E-05  0.169394058246215E-08   6   0.10E-07
MG:   iter    residual       solution
MG:     1  0.2343089E-05  0.1693941E-08
CGt    7  0.282343980433016E-05  0.804404367261958E-03   6   0.49E-05
CG:     7  0.2823440E-05  0.8044044E-03

CG iteration report
 dl_mg_info: convergence reached after            7 steps.
 residual norm    2.8234398043301573E-006
 solution norm    8.0440436726195836E-004
 solution tol     4.9033625649117874E-006
DEFCO   10  0.1042697E+01 0.1042807E+01 0.8126252E-02 0.3017630E-01 -> 0.1333124E-04 0.4679235E-07
MG1    1  0.161671677872636E-07  0.291991581246210E-07   1   0.26E-06
MGt    1  0.147326014760103E+00  0.477608976129075E-03   6   0.30E-05
MG:   iter    residual       solution
MG:     1  0.1473260E+00  0.4776090E-03
CGt    1  0.148391006801582E+00  0.481504004907892E-03   6   0.30E-05
CG:   iter    residual       solution
CG:     1  0.1483910E+00  0.4815040E-03
MG1    1  0.410348630183339E-08  0.741305619243444E-08   1   0.66E-07
MGt    1  0.177530950067572E-01  0.165951513797606E-04   6   0.15E-05
MG:   iter    residual       solution
MG:     1  0.1775310E-01  0.1659515E-04
CGt    2  0.169289584002561E-01  0.482679498974677E-03   6   0.30E-05
CG:     2  0.1692896E-01  0.4826795E-03
MG1    1  0.504250209943253E-09  0.914940886174499E-09   1   0.81E-08
MGt    1  0.272843905363901E-02  0.311405010711912E-05   6   0.17E-06
MG:   iter    residual       solution
MG:     1  0.2728439E-02  0.3114050E-05
CGt    3  0.285588694908431E-02  0.480294058666006E-03   6   0.30E-05
CG:     3  0.2855887E-02  0.4802941E-03
MG1    1  0.759930936386599E-10  0.138281110263534E-09   1   0.12E-08
MGt    1  0.456596064905745E-03  0.336936643732618E-06   6   0.29E-07
MG:   iter    residual       solution
MG:     1  0.4565961E-03  0.3369366E-06
CGt    4  0.345171347212959E-03  0.480349232967168E-03   6   0.30E-05
CG:     4  0.3451713E-03  0.4803492E-03
MG1    1  0.167517816315335E-10  0.302690198000102E-10   1   0.27E-09
MGt    1  0.546492967989758E-04  0.668178283240925E-07   6   0.10E-07
MG:   iter    residual       solution
MG:     1  0.5464930E-04  0.6681783E-07
CGt    5  0.597976701735852E-04  0.480392606661705E-03   6   0.30E-05
CG:     5  0.5979767E-04  0.4803926E-03
MG1    1  0.241154662742295E-11  0.434613209091295E-11   1   0.39E-10
MGt    1  0.794105891930842E-05  0.827286566894759E-08   6   0.10E-07
MG:   iter    residual       solution
MG:     1  0.7941059E-05  0.8272866E-08
CGt    6  0.912421578583963E-05  0.480388952380958E-03   6   0.30E-05
CG:     6  0.9124216E-05  0.4803890E-03
MG1    1  0.524056773937786E-13  0.958479570627702E-13   1   0.10E-11
MGt    1  0.139669556777250E-05  0.104557902027107E-08   6   0.10E-07
MG:   iter    residual       solution
MG:     1  0.1396696E-05  0.1045579E-08
CGt    7  0.173175457794385E-05  0.480388402915809E-03   6   0.30E-05
CG:     7  0.1731755E-05  0.4803884E-03

CG iteration report
 dl_mg_info: convergence reached after            7 steps.
 residual norm    1.7317545779438500E-006
 solution norm    4.8038840291580944E-004
 solution tol     3.0089501596471921E-006
DEFCO   11  0.1042893E+01 0.1042807E+01 0.4986678E-02 0.3018261E-01 -> 0.7961388E-05 0.2870005E-07

DEFCO Defect corrected solution obtained
DEFCO  - final defect norm:              0.498667768630890E-02
DEFCO  - final error norm:               0.796138821808932E-05
DEFCO  - defect-correction iterations: 11


 Charge neutrality test:

                 sum(c*q)       sum(c)       sum(c)/sum(N)
 ---------------------------------------------------------
fixed charge :  0.999E+00      0.999E+00
ions         : -0.395E+00      0.525E+00      0.246E+01
 ---------------------------------------------------------

chemical potential shifts  0.000E+00  0.000E+00
